{
	"_id": "1",
	"name": "The Basics of HTML",
	"description": "This book will teach you how to make HTML files in beginner way",
	"price": 1000,
	"stocks": 18,
	"isActive": true,
	"SKU": "JKAJDACNWUC282891"
},

{
	"_id": "2",
	"name": "The Modern Javascript",
	"description": "This book will teach you how to make Javascript codes in modern way",
	"price": 1500,
	"stocks": 12,
	"isActive": true,
	"SKU": "KJAGXAYWBZN344987"
}